Country,State,City,Zip Code,Station Name,Station Code
United States,Connecticut,Bridgeport,06604,Bridgeport Train Station,BRP
United States,Connecticut,Hartford,06103,Hartford Train Station,HFD
United States,Connecticut,New Haven,06519,New Haven Train Station,NHV
United States,Connecticut,New London,06320,New London Train Station,NLC
United States,Connecticut,Stamford,06902,Stamford Train Station,STM
United States,Delaware,Wilmington,19801,Wilmington Train Station,WIL
United States,District of Columbia,Washington DC,20002,Union Train Station,WAS
United States,Florida,Brandenton,34205,Brandenton Amtrak Train Station,BDT
United States,Florida,Dade City,33525,Dade City Amtrak Train Station,DDE
United States,Florida,Daytona Beach,31218,Daytona Beach Amtrak Train Station,DYA
United States,Florida,Deerfield Beach,33442,Deerfield Beach Amtrak Train Station,DFB
United States,Florida,Deland,32720,Deland Amtrak Train Station,DLD
United States,Florida,Delray Beach,33444,Delray Beach Amtrak Train Station,DLB
United States,Florida,Fort Lauderdale,33312,Fort Lauderdale Amtrak Train Station,FTL
United States,Florida,Fort Myers,33906,Fort Myers Amtrak Train Station,FTM
United States,Florida,Gainesville,32601,Gainesville Amtrak Train Station,GNF
United States,Florida,Hollywood,33021,Hollywood Amtrak Train Station,HOL
United States,Florida,Jacksonville,32209,Jacksonville Amtrak Train Station,JAX
United States,Florida,Kissimmee,34741,Kissimmee Amtrak Train Station,KIS
United States,Florida,Lady Lake - The villages Bus Stop,32159,Lady Lake - The villages Bus Stop Amtrak Train Station,TVF
United States,Florida,Lakeland - Departure 91,33801,Lakeland - Departure 91 Amtrak Train Station,LKL
United States,Florida,Lakeland -Departure 92,33801,Lakeland -Departure 92 Amtrak Train Station,LAK
United States,Florida,Miami,33147,Miami Amtrak Train Station,MIA
United States,Florida,Ocala,34470,Ocala Amtrak Train Station,OCA
United States,Florida,Okeechobee,34972,Okeechobee Amtrak Train Station,OKE
United States,Florida,Orlando,32806,Orlando Amtrak Train Station,ORL
United States,Florida,Palatka,32177,Palatka Amtrak Train Station,PAK
United States,Florida,Port Charlotte,33980,Port Charlotte Amtrak Train Station,PCH
United States,Florida,Sanford (Auto Train Only),32771,Sanford (Auto Train Only) Amtrak Train Station,SFA
United States,Florida,Sarasota,34231,Sarasota Amtrak Train Station,SRA
United States,Florida,Sebring,33870,Sebring Amtrak Train Station,SBG
United States,Florida,St Petersburg/Clearwater,33760,St Petersburg/Clearwater Amtrak Train Station,STP
United States,Florida,Tampa,33602,Tampa Amtrak Train Station,TPA
United States,Florida,Waldo,32694,Waldo Amtrak Train Station,WDO
United States,Florida,West Palm Beach,33401,West Palm Beach Amtrak Train Station,WPB
United States,Florida,Wildwood,34785,Wildwood Amtrak Train Station,WWD
United States,Florida,Winter Haven,33880,Winter Haven Amtrak Train Station,WTH
United States,Florida,Winter Park,32789,Winter Park Amtrak Train Station,WPK
United States,Maryland,Baltimore,21240,Amtrak/MARC Station,BWI
United States,Maryland,Baltimore,21201,Baltimore Penn Station,BAL
United States,Massachusetts,Boston,02114,Boston North Station,BON
United States,Massachusetts,Boston,02110,Boston South Station,BOS
United States,New Jersey,Newark,07102,Newark Penn Station,NWK
United States,New York,New York City,10017,Grand Central Train Station,NYG
United States,New York,New York City,10119,Pennsylvania Train Station,NYP
United States,Pennsylvania,Philadelphia,19104,30th Street Train Station,PHL
United States,Pennsylvania,Pittsburgh,15222,Pittsburgh Train Station,PGH
